<?xml version="1.0" encoding="UTF-8" standalone="no" ?>
<COLLADA xmlns="http://www.collada.org/2005/11/COLLADASchema" version="1.4.1">
    <asset>
        <contributor>
            <author>elliotrocks98</author>
            <authoring_tool>SketchUp 7.1.6860</authoring_tool>
        </contributor>
        <created>2019-12-08T03:09:36Z</created>
        <modified>2019-12-08T03:09:36Z</modified>
        <unit meter="0.0254" name="inch" />
        <up_axis>Z_UP</up_axis>
    </asset>
    <library_cameras>
        <camera id="ID1" name="skp_camera_Last_Saved_SketchUp_View">
            <optics>
                <technique_common>
                    <perspective>
                        <yfov>35</yfov>
                        <aspect_ratio>0</aspect_ratio>
                        <znear>1</znear>
                        <zfar>1000</zfar>
                    </perspective>
                </technique_common>
            </optics>
        </camera>
    </library_cameras>
    <library_visual_scenes>
        <visual_scene id="ID2">
            <node name="SketchUp">
                <instance_geometry url="#ID27">
                    <bind_material>
                        <technique_common>
                            <instance_material symbol="Material2" target="#ID29">
                                <bind_vertex_input semantic="UVSET0" input_semantic="TEXCOORD" input_set="0" />
                            </instance_material>
                            <instance_material symbol="Material3" target="#ID35">
                                <bind_vertex_input semantic="UVSET0" input_semantic="TEXCOORD" input_set="0" />
                            </instance_material>
                            <instance_material symbol="Material4" target="#ID36">
                                <bind_vertex_input semantic="UVSET0" input_semantic="TEXCOORD" input_set="0" />
                            </instance_material>
                        </technique_common>
                    </bind_material>
                </instance_geometry>
                <instance_geometry url="#ID41">
                    <bind_material>
                        <technique_common>
                            <instance_material symbol="Material2" target="#ID35">
                                <bind_vertex_input semantic="UVSET0" input_semantic="TEXCOORD" input_set="0" />
                            </instance_material>
                            <instance_material symbol="Material3" target="#ID42">
                                <bind_vertex_input semantic="UVSET0" input_semantic="TEXCOORD" input_set="0" />
                            </instance_material>
                            <instance_material symbol="Material4" target="#ID21">
                                <bind_vertex_input semantic="UVSET0" input_semantic="TEXCOORD" input_set="0" />
                            </instance_material>
                            <instance_material symbol="Material5" target="#ID36">
                                <bind_vertex_input semantic="UVSET0" input_semantic="TEXCOORD" input_set="0" />
                            </instance_material>
                        </technique_common>
                    </bind_material>
                </instance_geometry>
                <node name="skp_camera_Last_Saved_SketchUp_View">
                    <matrix>-0.5624225 -0.4187093 0.7129961 222.2236 0.8268501 -0.2848056 0.4849792 263.3409 0 0.862304 0.5063909 226.1608 0 0 0 1</matrix>
                    <instance_camera url="#ID1" />
                </node>
                <node id="ID3" name="instance_0">
                    <matrix>1 0 0 0 0 1 0 0 0 0 1 0 0 0 0 1</matrix>
                    <instance_node url="#ID4" />
                </node>
            </node>
        </visual_scene>
    </library_visual_scenes>
    <library_nodes>
        <node id="ID4" name="pollistyrine">
            <instance_geometry url="#ID5">
                <bind_material>
                    <technique_common>
                        <instance_material symbol="Material2" target="#ID6">
                            <bind_vertex_input semantic="UVSET0" input_semantic="TEXCOORD" input_set="0" />
                        </instance_material>
                        <instance_material symbol="Material3" target="#ID16">
                            <bind_vertex_input semantic="UVSET0" input_semantic="TEXCOORD" input_set="0" />
                        </instance_material>
                        <instance_material symbol="Material4" target="#ID21">
                            <bind_vertex_input semantic="UVSET0" input_semantic="TEXCOORD" input_set="0" />
                        </instance_material>
                    </technique_common>
                </bind_material>
            </instance_geometry>
        </node>
    </library_nodes>
    <library_geometries>
        <geometry id="ID5">
            <mesh>
                <source id="ID11">
                    <float_array id="ID23" count="168">12.9375 240.4375 0 0 0 0 0 240.4375 0 12.9375 0 0 12.9375 0 0 12.9375 240.4375 0 0 0 0 0 240.4375 0 12.9375 240.4375 0 0 240.4375 0 12.9375 0 0 0 0 0 0 240.4375 12 12.9375 240.4375 0 0 240.4375 0 12.9375 240.4375 12 12.9375 240.4375 12 0 240.4375 12 12.9375 240.4375 0 0 240.4375 0 0 240.4375 12 12.9375 240.4375 12 12.9375 240.4375 0 12.9375 0 12 12.9375 0 0 12.9375 240.4375 12 12.9375 240.4375 12 12.9375 240.4375 0 12.9375 0 12 12.9375 0 0 12.9375 0 12 12.9375 0 12 0 0 0 12.9375 0 0 0 0 12 0 0 12 12.9375 0 12 0 0 0 12.9375 0 0 0 0 12 0 240.4375 12 0 0 0 0 0 12 0 240.4375 0 0 240.4375 0 0 240.4375 12 0 0 0 0 0 12 12.9375 0 12 0 240.4375 12 0 0 12 12.9375 240.4375 12 12.9375 240.4375 12 12.9375 0 12 0 240.4375 12 0 0 12</float_array>
                    <technique_common>
                        <accessor count="56" source="#ID23" stride="3">
                            <param name="X" type="float" />
                            <param name="Y" type="float" />
                            <param name="Z" type="float" />
                        </accessor>
                    </technique_common>
                </source>
                <source id="ID12">
                    <float_array id="ID24" count="168">0 0 -1 0 0 -1 0 0 -1 0 0 -1 -0 -0 1 -0 -0 1 -0 -0 1 -0 -0 1 0 0 0 0 0 0 0 0 0 0 0 0 0 1 0 0 1 0 0 1 0 0 1 0 -0 -1 -0 -0 -1 -0 -0 -1 -0 -0 -1 -0 0 0 0 0 0 0 1 0 0 1 0 0 1 0 0 1 0 0 -1 -0 -0 -1 -0 -0 -1 -0 -0 -1 -0 -0 0 0 0 -0 -1 -0 -0 -1 -0 -0 -1 -0 -0 -1 -0 0 1 0 0 1 0 0 1 0 0 1 0 0 0 0 -1 0 0 -1 0 0 -1 0 0 -1 0 0 1 -0 -0 1 -0 -0 1 -0 -0 1 -0 -0 0 0 1 0 0 1 0 0 1 0 0 1 -0 -0 -1 -0 -0 -1 -0 -0 -1 -0 -0 -1</float_array>
                    <technique_common>
                        <accessor count="56" source="#ID24" stride="3">
                            <param name="X" type="float" />
                            <param name="Y" type="float" />
                            <param name="Z" type="float" />
                        </accessor>
                    </technique_common>
                </source>
                <source id="ID13">
                    <Name_array id="ID26" count="0" />
                    <technique_common>
                        <accessor count="0" source="#ID26" stride="1">
                            <param name="skp_material" type="Name" />
                        </accessor>
                    </technique_common>
                </source>
                <source id="ID15">
                    <float_array id="ID25" count="26">-1.078125 20.03646 0 0 0 20.03646 -1.078125 0 0 1 -1.078125 1 20.03646 0 20.03646 1 1.078125 1 1.078125 0 -20.03646 1 -20.03646 0 1.078125 20.03646</float_array>
                    <technique_common>
                        <accessor count="13" source="#ID25" stride="2">
                            <param name="S" type="float" />
                            <param name="T" type="float" />
                        </accessor>
                    </technique_common>
                </source>
                <vertices id="ID14">
                    <input semantic="POSITION" source="#ID11" />
                    <input semantic="NORMAL" source="#ID12" />
                </vertices>
                <triangles count="12" material="Material2">
                    <input offset="0" semantic="VERTEX" source="#ID14" />
                    <input offset="1" semantic="TEXCOORD" source="#ID15" />
                    <p>0 0 1 1 2 2 1 1 0 0 3 3 12 4 13 3 14 1 13 3 12 4 15 5 22 6 23 4 24 1 23 4 22 6 25 7 31 8 32 1 33 9 32 1 31 8 34 4 40 10 41 1 42 4 41 1 40 10 43 11 48 9 49 2 50 1 49 2 48 9 51 12</p>
                </triangles>
                <triangles count="12" material="Material3">
                    <input offset="0" semantic="VERTEX" source="#ID14" />
                    <input offset="1" semantic="TEXCOORD" source="#ID15" />
                    <p>4 3 5 0 6 1 7 2 6 1 5 0 16 5 17 4 18 3 19 1 18 3 17 4 26 7 27 6 28 4 29 1 28 4 27 6 35 4 36 8 37 1 38 9 37 1 36 8 44 11 45 10 46 1 47 4 46 1 45 10 52 12 53 9 54 2 55 1 54 2 53 9</p>
                </triangles>
                <lines count="12" material="Material4">
                    <input offset="0" semantic="VERTEX" source="#ID14" />
                    <p>8 9 10 8 11 10 9 11 9 20 21 20 8 21 30 21 10 30 39 30 11 39 20 39</p>
                </lines>
            </mesh>
        </geometry>
        <geometry id="ID27">
            <mesh>
                <source id="ID30">
                    <float_array id="ID38" count="36">12.9375 240.4375 12 0 0 12 0 240.4375 12 12.9375 0 12 12.9375 0 12 12.9375 240.4375 12 0 0 12 0 240.4375 12 0 0 12 0 240.4375 12 12.9375 240.4375 12 12.9375 0 12</float_array>
                    <technique_common>
                        <accessor count="12" source="#ID38" stride="3">
                            <param name="X" type="float" />
                            <param name="Y" type="float" />
                            <param name="Z" type="float" />
                        </accessor>
                    </technique_common>
                </source>
                <source id="ID31">
                    <float_array id="ID39" count="36">0 0 -1 0 0 -1 0 0 -1 0 0 -1 -0 -0 1 -0 -0 1 -0 -0 1 -0 -0 1 0 0 0 0 0 0 0 0 0 0 0 0</float_array>
                    <technique_common>
                        <accessor count="12" source="#ID39" stride="3">
                            <param name="X" type="float" />
                            <param name="Y" type="float" />
                            <param name="Z" type="float" />
                        </accessor>
                    </technique_common>
                </source>
                <source id="ID32">
                    <Name_array id="ID40" count="0" />
                    <technique_common>
                        <accessor count="0" source="#ID40" stride="1">
                            <param name="skp_material" type="Name" />
                        </accessor>
                    </technique_common>
                </source>
                <vertices id="ID33">
                    <input semantic="POSITION" source="#ID30" />
                    <input semantic="NORMAL" source="#ID31" />
                </vertices>
                <triangles count="2" material="Material2">
                    <input offset="0" semantic="VERTEX" source="#ID33" />
                    <p>0 1 2 1 0 3</p>
                </triangles>
                <triangles count="2" material="Material3">
                    <input offset="0" semantic="VERTEX" source="#ID33" />
                    <p>4 5 6 7 6 5</p>
                </triangles>
                <lines count="4" material="Material4">
                    <input offset="0" semantic="VERTEX" source="#ID33" />
                    <p>8 9 9 10 10 11 11 8</p>
                </lines>
            </mesh>
        </geometry>
        <geometry id="ID41">
            <mesh>
                <source id="ID47">
                    <float_array id="ID52" count="144">12.9375 0 96 0 240.4375 96 0 0 96 12.9375 240.4375 96 12.9375 240.4375 96 12.9375 0 96 0 240.4375 96 0 0 96 0 0 96 0 240.4375 96 12.9375 0 96 12.9375 240.4375 96 0 240.4375 96 0 0 12 0 0 96 0 240.4375 12 0 240.4375 12 0 240.4375 96 0 0 12 0 0 96 0 0 12 0 240.4375 12 12.9375 0 96 0 0 12 12.9375 0 12 0 0 96 0 0 96 12.9375 0 96 0 0 12 12.9375 0 12 12.9375 0 12 12.9375 240.4375 12 12.9375 0 96 12.9375 0 12 12.9375 240.4375 96 12.9375 240.4375 96 12.9375 240.4375 12 12.9375 0 96 12.9375 0 12 12.9375 240.4375 12 0 240.4375 96 12.9375 240.4375 12 0 240.4375 12 12.9375 240.4375 96 12.9375 240.4375 96 0 240.4375 96 12.9375 240.4375 12 0 240.4375 12</float_array>
                    <technique_common>
                        <accessor count="48" source="#ID52" stride="3">
                            <param name="X" type="float" />
                            <param name="Y" type="float" />
                            <param name="Z" type="float" />
                        </accessor>
                    </technique_common>
                </source>
                <source id="ID48">
                    <float_array id="ID53" count="144">0 0 1 0 0 1 0 0 1 0 0 1 -0 -0 -1 -0 -0 -1 -0 -0 -1 -0 -0 -1 0 0 0 0 0 0 0 0 0 0 0 0 -1 0 0 -1 0 0 -1 0 0 -1 0 0 1 -0 -0 1 -0 -0 1 -0 -0 1 -0 -0 0 0 0 0 0 0 -0 -1 -0 -0 -1 -0 -0 -1 -0 -0 -1 -0 0 1 0 0 1 0 0 1 0 0 1 0 0 0 0 1 0 0 1 0 0 1 0 0 1 0 0 -1 -0 -0 -1 -0 -0 -1 -0 -0 -1 -0 -0 0 0 0 -0 1 0 -0 1 0 -0 1 0 -0 1 0 0 -1 -0 0 -1 -0 0 -1 -0 0 -1 -0</float_array>
                    <technique_common>
                        <accessor count="48" source="#ID53" stride="3">
                            <param name="X" type="float" />
                            <param name="Y" type="float" />
                            <param name="Z" type="float" />
                        </accessor>
                    </technique_common>
                </source>
                <source id="ID49">
                    <Name_array id="ID55" count="0" />
                    <technique_common>
                        <accessor count="0" source="#ID55" stride="1">
                            <param name="skp_material" type="Name" />
                        </accessor>
                    </technique_common>
                </source>
                <source id="ID51">
                    <float_array id="ID54" count="28">1.078125 0 0 20.03646 0 0 1.078125 20.03646 -20.03646 8 0 1 0 8 -20.03646 1 1.078125 8 1.078125 1 20.03646 1 20.03646 8 -1.078125 1 -1.078125 8</float_array>
                    <technique_common>
                        <accessor count="14" source="#ID54" stride="2">
                            <param name="S" type="float" />
                            <param name="T" type="float" />
                        </accessor>
                    </technique_common>
                </source>
                <vertices id="ID50">
                    <input semantic="POSITION" source="#ID47" />
                    <input semantic="NORMAL" source="#ID48" />
                </vertices>
                <triangles count="10" material="Material3">
                    <input offset="0" semantic="VERTEX" source="#ID50" />
                    <input offset="1" semantic="TEXCOORD" source="#ID51" />
                    <p>0 0 1 1 2 2 1 1 0 0 3 3 12 4 13 5 14 6 13 5 12 4 15 7 22 8 23 5 24 9 23 5 22 8 25 6 31 10 32 6 33 5 32 6 31 10 34 11 40 6 41 12 42 5 41 12 40 6 43 13</p>
                </triangles>
                <triangles count="10" material="Material2">
                    <input offset="0" semantic="VERTEX" source="#ID50" />
                    <p>4 5 6 7 6 5 16 17 18 19 18 17 26 27 28 29 28 27 35 36 37 38 37 36 44 45 46 47 46 45</p>
                </triangles>
                <lines count="2" material="Material4">
                    <input offset="0" semantic="VERTEX" source="#ID50" />
                    <p>8 9 20 8</p>
                </lines>
                <lines count="10" material="Material5">
                    <input offset="0" semantic="VERTEX" source="#ID50" />
                    <p>10 8 11 10 9 11 20 21 21 9 30 20 30 10 39 30 39 11 21 39</p>
                </lines>
            </mesh>
        </geometry>
    </library_geometries>
    <library_materials>
        <material id="ID6" name="Carpet_Plush_Charcoal">
            <instance_effect url="#ID7" />
        </material>
        <material id="ID16" name="__Carpet_Plush_Charcoal_1">
            <instance_effect url="#ID17" />
        </material>
        <material id="ID21" name="edge_color255255255255">
            <instance_effect url="#ID22" />
        </material>
        <material id="ID29" name="material">
            <instance_effect url="#ID28" />
        </material>
        <material id="ID35" name="material_0">
            <instance_effect url="#ID34" />
        </material>
        <material id="ID36" name="edge_color000255">
            <instance_effect url="#ID37" />
        </material>
        <material id="ID42" name="__Carpet_Plush_Charcoal_1_1">
            <instance_effect url="#ID43" />
        </material>
    </library_materials>
    <library_effects>
        <effect id="ID7">
            <profile_COMMON>
                <newparam sid="ID9">
                    <surface type="2D">
                        <init_from>ID8</init_from>
                    </surface>
                </newparam>
                <newparam sid="ID10">
                    <sampler2D>
                        <source>ID9</source>
                    </sampler2D>
                </newparam>
                <technique sid="COMMON">
                    <lambert>
                        <diffuse>
                            <texture texture="ID10" texcoord="UVSET0" />
                        </diffuse>
                    </lambert>
                </technique>
            </profile_COMMON>
        </effect>
        <effect id="ID17">
            <profile_COMMON>
                <newparam sid="ID19">
                    <surface type="2D">
                        <init_from>ID18</init_from>
                    </surface>
                </newparam>
                <newparam sid="ID20">
                    <sampler2D>
                        <source>ID19</source>
                    </sampler2D>
                </newparam>
                <technique sid="COMMON">
                    <lambert>
                        <diffuse>
                            <texture texture="ID20" texcoord="UVSET0" />
                        </diffuse>
                    </lambert>
                </technique>
            </profile_COMMON>
        </effect>
        <effect id="ID22">
            <profile_COMMON>
                <technique sid="COMMON">
                    <constant>
                        <transparent opaque="A_ONE">
                            <color>1 1 1 1</color>
                        </transparent>
                        <transparency>
                            <float>1</float>
                        </transparency>
                    </constant>
                </technique>
            </profile_COMMON>
        </effect>
        <effect id="ID28">
            <profile_COMMON>
                <technique sid="COMMON">
                    <lambert>
                        <diffuse>
                            <color>1 1 1 1</color>
                        </diffuse>
                    </lambert>
                </technique>
            </profile_COMMON>
        </effect>
        <effect id="ID34">
            <profile_COMMON>
                <technique sid="COMMON">
                    <lambert>
                        <diffuse>
                            <color>0.6705882 0.6901961 0.8 1</color>
                        </diffuse>
                    </lambert>
                </technique>
            </profile_COMMON>
        </effect>
        <effect id="ID37">
            <profile_COMMON>
                <technique sid="COMMON">
                    <constant>
                        <transparent opaque="A_ONE">
                            <color>0 0 0 1</color>
                        </transparent>
                        <transparency>
                            <float>1</float>
                        </transparency>
                    </constant>
                </technique>
            </profile_COMMON>
        </effect>
        <effect id="ID43">
            <profile_COMMON>
                <newparam sid="ID45">
                    <surface type="2D">
                        <init_from>ID44</init_from>
                    </surface>
                </newparam>
                <newparam sid="ID46">
                    <sampler2D>
                        <source>ID45</source>
                    </sampler2D>
                </newparam>
                <technique sid="COMMON">
                    <lambert>
                        <diffuse>
                            <texture texture="ID46" texcoord="UVSET0" />
                        </diffuse>
                    </lambert>
                </technique>
            </profile_COMMON>
        </effect>
    </library_effects>
    <library_images>
        <image id="ID8">
            <init_from>model/Carpet_Plush_Charcoal.jpg</init_from>
        </image>
        <image id="ID18">
            <init_from>model/__Carpet_Plush_Charcoal_1.jpg</init_from>
        </image>
        <image id="ID44">
            <init_from>model/__Carpet_Plush_Charcoal_1_1.jpg</init_from>
        </image>
    </library_images>
    <scene>
        <instance_visual_scene url="#ID2" />
    </scene>
</COLLADA>
